{
  "prepare_queue": {
    "installed": [],
    "uninstalled": []
  },
  "config_munge": {
    "files": {}
  },
  "installed_plugins": {
    "com-badrit-base64": {
      "PACKAGE_NAME": "com.lucper.workapp"
    },
    "cordova-plugin-camera": {
      "PACKAGE_NAME": "com.lucper.workapp"
    },
    "cordova-plugin-crop": {
      "PACKAGE_NAME": "com.lucper.workapp"
    },
    "cordova-plugin-device": {
      "PACKAGE_NAME": "com.lucper.workapp"
    },
    "cordova-plugin-file": {
      "PACKAGE_NAME": "com.lucper.workapp"
    }
  },
  "dependent_plugins": {}
}